[gd_scene load_steps=4 format=3 uid="uid://dvctbj1v1yh1p"]

[ext_resource type="Script" path="res://Assets/Menu/MenuButton.gd" id="1_n3cum"]
[ext_resource type="AudioStream" uid="uid://da7hq3d1msmud" path="res://Assets/SFX/UI_Click.wav" id="2_bcuk1"]
[ext_resource type="AudioStream" uid="uid://dc4rractm5dhf" path="res://Assets/SFX/UI_Hover.wav" id="3_01uf5"]

[node name="MenuButton" type="Button"]
anchor_right = 1.0
anchor_bottom = 1.0
theme_override_font_sizes/font_size = 16
script = ExtResource( "1_n3cum" )
__meta__ = {
"_edit_use_anchors_": false
}

[node name="ClickSound" type="AudioStreamPlayer" parent="."]
stream = ExtResource( "2_bcuk1" )

[node name="HoverSound" type="AudioStreamPlayer" parent="."]
stream = ExtResource( "3_01uf5" )

[connection signal="mouse_entered" from="." to="." method="_on_MenuButton_mouse_entered"]
[connection signal="pressed" from="." to="." method="_on_MenuButton_pressed"]
